param_set_1/tiny-aes-ecb-partition-1/AES_ECB_encrypt/hls/sim/verilog/dump.vcd
$date
   Wed Jan 29 16:18:15 2025
$end

$version
  2024.1
$end

$timescale
  1ps
$end

$scope module apatb_AES_ECB_encrypt_top $end
$var reg 1 ! AESL_clock $end
$var reg 1 " rst $end
$var reg 1 # dut_rst $end
$var reg 1 $ start $end
$var reg 1 % ce $end
$var reg 1 & tb_continue $end
$var wire 1 ' AESL_start $end
$var wire 1 ( AESL_reset $end
$var wire 1 ) AESL_ce $end
$var wire 1 * AESL_ready $end
$var wire 1 + AESL_idle $end
$var wire 1 , AESL_continue $end
$var wire 1 - AESL_done $end
$var reg 1 . AESL_done_delay $end
$var reg 1 / AESL_done_delay2 $end
$var reg 1 0 AESL_ready_delay $end
$var wire 1 1 ready $end
$var wire 1 2 ready_wire $end
$var wire 1 3 ap_start $end
$var wire 1 4 ap_done $end
$var wire 1 5 ap_idle $end
$var wire 1 6 ap_ready $end
$var wire 1536 7 ctx [1535:0] $end
$var wire 4 8 buf_r_address0 [3:0] $end
$var wire 1 9 buf_r_ce0 $end
$var wire 1 : buf_r_we0 $end
$var wire 8 ; buf_r_d0 [7:0] $end
$var wire 8 < buf_r_q0 [7:0] $end
$var wire 4 = buf_r_address1 [3:0] $end
$var wire 1 > buf_r_ce1 $end
$var wire 1 ? buf_r_we1 $end
$var wire 8 @ buf_r_d1 [7:0] $end
$var wire 8 A buf_r_q1 [7:0] $end
$var integer 32 B done_cnt [31:0] $end
$var integer 32 C AESL_ready_cnt [31:0] $end
$var integer 32 D ready_cnt [31:0] $end
$var reg 1 E ready_initial $end
$var reg 1 F ready_initial_n $end
$var reg 1 G ready_last_n $end
$var reg 1 H ready_delay_last_n $end
$var reg 1 I done_delay_last_n $end
$var reg 1 J interface_done $end
$var wire 1 K ap_clk $end
$var wire 1 L ap_rst $end
$var wire 1 M ap_rst_n $end
$var reg 1536 N AESL_REG_ctx [1535:0] $end
$var wire 1 O arraybuf_r_ce0 $end
$var wire 1 P arraybuf_r_ce1 $end
$var wire 1 Q arraybuf_r_we0 [0:0] $end
$var wire 1 R arraybuf_r_we1 [0:0] $end
$var wire 4 S arraybuf_r_address0 [3:0] $end
$var wire 4 T arraybuf_r_address1 [3:0] $end
$var wire 8 U arraybuf_r_din0 [7:0] $end
$var wire 8 V arraybuf_r_din1 [7:0] $end
$var wire 8 W arraybuf_r_dout0 [7:0] $end
$var wire 8 X arraybuf_r_dout1 [7:0] $end
$var wire 1 Y arraybuf_r_ready $end
$var wire 1 Z arraybuf_r_done $end
$var wire 1 [ all_finish $end
$var reg 1 \ end_ctx $end
$var reg 32 ] size_ctx [31:0] $end
$var reg 32 ^ size_ctx_backup [31:0] $end
$var reg 1 _ end_buf_r $end
$var reg 32 ` size_buf_r [31:0] $end
$var reg 32 a size_buf_r_backup [31:0] $end
$var reg 1 b dump_tvout_finish_buf_r $end
$var reg 32 c clk_cnt [31:0] $end
$var reg 1 d AESL_ready_p1 $end
$var reg 1 e AESL_start_p1 $end
$var reg 32 f start_cnt [31:0] $end
$var reg 32 g ap_ready_cnt [31:0] $end
$var reg 32 h finish_cnt [31:0] $end
$var reg 32 i lat_total [31:0] $end
$var reg 32 j progress_timeout [31:0] $end
$var parameter 32 k AUTOTB_TRANSACTION_NUM [31:0] $end
$var parameter 32 l PROGRESS_TIMEOUT [31:0] $end
$var parameter 32 m LATENCY_ESTIMATION [31:0] $end
$var parameter 32 n LENGTH_buf_r [31:0] $end
$var parameter 32 o LENGTH_ctx [31:0] $end
$upscope $end
$enddefinitions $end

#0
$dumpvars
0!
1"
1#
0$
1%
0&
0'
1(
1)
0*
1+
0,
0-
0.
0/
00
01
02
03
04
15
06
b0 7
bx 8
09
0:
bx ;
b0 <
bx =
0>
0?
bx @
b0 A
b0 B
b0 C
b0 D
0E
xF
1G
xH
1I
0J
0K
1L
0M
b0 N
0O
0P
0Q
0R
bx S
bx T
bx U
bx V
b0 W
b0 X
0Y
0Z
0[
x\
bx ]
bx ^
x_
bx `
bx a
0b
b0 c
xd
xe
b0 f
b0 g
b0 h
bx i
bx j
b1 k
b100110001001011010000000 l
b1101001 m
b10000 n
b1 o
$end

#5000
1!
0H
1K
0d
0e

#10000
0!
0K

#15000
1!
1K

#20000
0!
0K

#25000
1!
1K

#30000
0!
0K

#35000
1!
1K

#40000
0!
0K

#45000
1!
1K

#50000
0!
0K

#55000
1!
1K

#60000
0!
0K

#65000
1!
1K

#70000
0!
0K

#75000
1!
1K

#80000
0!
0K

#85000
1!
1K

#90000
0!
0K

#95000
1!
1K

#100000
0!
0K

#105000
1!
1K

#110000
0!
0K

#115000
1!
1K

#120000
0!
0K

#125000
1!
1K

#125100
0"
0#
0(
0L
1M
b100110001001011010000000 j

#130000
0!
0K

#135000
1!
1$
1'
0+
11
12
13
05
1E
1H
1K
1Y
b1 c

#135200
b1010011000001100011000111011011011001000000011000011111111100001100010010010010111101110110010011010100011111001000101001101000001101110000000000101110001010111010000010010100111010001001010000010000111011100111110100001100111110011011001100111011110101100001011110010100110001101011111110110000011110101001010110011000111010010101110101000110110110101001000010111001111010010111010100100111111011100101001100100111010110010010011111010011010000100111100111100100101011111010111110000111011110111010101000100111011111101100100110000000011001010010000011000011011111001110110111111110100111110000010110001000101111010101000111000100001101101101111000001010111111001000100011011110010111000111100101100101010000111100111011000001101111100111110001100011011010001110101000000000010101101000010111101101100111011001001010111000110110110011111110101101101010010101010000100000110100101010001001110111100111011100010000111101001101101010001000111111000100011000111100011111011111110000101100100011101111101010001111000000000111101011111111111011001011001011100110111101010000000001101010101100101000011101110011001011001111010111100101001010111000010111100100000010101110110011011000010101000111001001110011010001100100011101100010010110001010100100010000001011111111110111110101010000000111100010011111100111100001001100010000001010111110111101010111010011011010010101011100010100000010110000101010111111000101011 7
b1010011000001100011000111011011011001000000011000011111111100001100010010010010111101110110010011010100011111001000101001101000001101110000000000101110001010111010000010010100111010001001010000010000111011100111110100001100111110011011001100111011110101100001011110010100110001101011111110110000011110101001010110011000111010010101110101000110110110101001000010111001111010010111010100100111111011100101001100100111010110010010011111010011010000100111100111100100101011111010111110000111011110111010101000100111011111101100100110000000011001010010000011000011011111001110110111111110100111110000010110001000101111010101000111000100001101101101111000001010111111001000100011011110010111000111100101100101010000111100111011000001101111100111110001100011011010001110101000000000010101101000010111101101100111011001001010111000110110110011111110101101101010010101010000100000110100101010001001110111100111011100010000111101001101101010001000111111000100011000111100011111011111110000101100100011101111101010001111000000000111101011111111111011001011001011100110111101010000000001101010101100101000011101110011001011001111010111100101001010111000010111100100000010101110110011011000010101000111001001110011010001100100011101100010010110001010100100010000001011111111110111110101010000000111100010011111100111100001001100010000001010111110111101010111010011011010010101011100010100000010110000101010111111000101011 N

#140000
0!
0K

#145000
1!
0&
0*
0,
0-
01
02
04
06
b1 D
0E
1K
0Y
b10 c
1e
b1 f
b100110001001011001111111 j

#150000
0!
0K

#155000
1!
b0 8
b101011 ;
b0 =
0G
1K
b0 S
b0 T
b101011 U
b11 c
b100110001001011001111110 j

#160000
0!
0K

#165000
1!
0H
1K
b100 c
b100110001001011001111101 j

#170000
0!
0K

#175000
1!
1>
1K
1P
b101 c
b100110001001011001111100 j

#180000
0!
0K

#185000
1!
19
1:
b1 =
1K
1O
1Q
b1 T
b110 c
b100110001001011001111011 j

#185100
b1000000 ;
b1101011 A
b1000000 U
b1101011 X

#190000
0!
0K

#195000
1!
b1 8
b10101 ;
b10 =
1K
b1 S
b10 T
b10101 U
b111 c
b100110001001011001111010 j

#195100
b10111111 ;
b1101011 <
b11000001 A
b10111111 U
b1101011 W
b11000001 X

#200000
0!
0K

#205000
1!
b10 8
b11010100 ;
b11 =
1K
b10 S
b11 T
b11010100 U
b1000 c
b100110001001011001111001 j

#205100
b10101011 ;
b11000001 <
b10111110 A
b10101011 U
b11000001 W
b10111110 X

#210000
0!
0K

#215000
1!
b11 8
b10101000 ;
b100 =
1K
b11 S
b100 T
b10101000 U
b1001 c
b100110001001011001111000 j

#215100
b11110100 ;
b10111110 <
b11100010 A
b11110100 U
b10111110 W
b11100010 X

#220000
0!
0K

#225000
1!
b100 8
b11001010 ;
b101 =
1K
b100 S
b101 T
b11001010 U
b1010 c
b100110001001011001110111 j

#225100
b110 ;
b11100010 <
b101110 A
b110 U
b11100010 W
b101110 X

#230000
0!
0K

#235000
1!
b101 8
b10000000 ;
b110 =
1K
b101 S
b110 T
b10000000 U
b1011 c
b100110001001011001110110 j

#235100
b11101110 ;
b101110 <
b1000000 A
b11101110 U
b101110 W
b1000000 X

#240000
0!
0K

#245000
1!
b110 8
b10010010 ;
b111 =
1K
b110 S
b111 T
b10010010 U
b1100 c
b100110001001011001110101 j

#245100
b1001101 ;
b1000000 <
b10011111 A
b1001101 U
b1000000 W
b10011111 X

#250000
0!
0K

#255000
1!
b111 8
b111001 ;
b1000 =
1K
b111 S
b1000 T
b111001 U
b1101 c
b100110001001011001110100 j

#255100
b110000 ;
b10011111 <
b10010110 A
b110000 U
b10011111 W
b10010110 X

#260000
0!
0K

#265000
1!
b1000 8
b111101 ;
b1001 =
1K
b1000 S
b1001 T
b111101 U
b1110 c
b100110001001011001110011 j

#265100
b1000010 ;
b10010110 <
b11101001 A
b1000010 U
b10010110 W
b11101001 X

#270000
0!
0K

#275000
1!
b1001 8
b11110 ;
b1010 =
1K
b1001 S
b1010 T
b11110 U
b1111 c
b100110001001011001110010 j

#275100
b11001010 ;
b11101001 <
b111101 A
b11001010 U
b11101001 W
b111101 X

#280000
0!
0K

#285000
1!
b1010 8
b101000 ;
b1011 =
1K
b1010 S
b1011 T
b101000 U
b10000 c
b100110001001011001110001 j

#285100
b1101011 ;
b111101 <
b1111110 A
b1101011 U
b111101 W
b1111110 X

#290000
0!
0K

#295000
1!
b1011 8
b11110110 ;
b1100 =
1K
b1011 S
b1100 T
b11110110 U
b10001 c
b100110001001011001110000 j

#295100
b10011001 ;
b1111110 <
b10001 A
b10011001 U
b1111110 W
b10001 X

#300000
0!
0K

#305000
1!
b1100 8
b11000 ;
b1101 =
1K
b1100 S
b1101 T
b11000 U
b10010 c
b100110001001011001101111 j

#305100
b1111010 ;
b10001 <
b1110011 A
b1111010 U
b10001 W
b1110011 X

#310000
0!
0K

#315000
1!
b1101 8
b10111100 ;
b1110 =
1K
b1101 S
b1110 T
b10111100 U
b10011 c
b100110001001011001101110 j

#315100
b1011100 ;
b1110011 <
b10010011 A
b1011100 U
b1110011 W
b10010011 X

#320000
0!
0K

#325000
1!
b1110 8
b11011100 ;
b1111 =
1K
b1110 S
b1111 T
b11011100 U
b10100 c
b100110001001011001101101 j

#325100
b1011000 ;
b10010011 <
b10111 A
b1011000 U
b10010011 W
b10111 X

#330000
0!
0K

#335000
1!
b1111 8
b101011 ;
b0 =
0>
1K
0P
b1111 S
b0 T
b101011 U
b10101 c
b100110001001011001101100 j

#335100
b10110 ;
b10111 <
b101010 A
b10110 U
b10111 W
b101010 X

#340000
0!
0K

#345000
1!
bx 8
09
0:
bx ;
bx =
1K
0O
0Q
bx S
bx T
bx U
b10110 c
b100110001001011001101011 j

#345100
b101010 <
b101010 W

#350000
0!
0K

#355000
1!
b0 8
b0 =
1K
b0 S
b0 T
b10111 c
b100110001001011001101010 j

#360000
0!
0K

#365000
1!
1>
1K
1P
b11000 c
b100110001001011001101001 j

#370000
0!
0K

#375000
1!
b100 =
1K
b100 T
b11001 c
b100110001001011001101000 j

#375100
b1000000 A
b1000000 X

#380000
0!
0K

#385000
1!
19
1:
b1001 ;
b1000 =
1K
1O
1Q
b1000 T
b1001 U
b11010 c
b100110001001011001100111 j

#385100
b110 A
b110 X

#390000
0!
0K

#395000
1!
b100 8
b1101111 ;
b1100 =
1K
b100 S
b1100 T
b1101111 U
b11011 c
b100110001001011001100110 j

#395100
b1000000 <
b1000010 A
b1000000 W
b1000010 X

#400000
0!
0K

#405000
1!
b1000 8
b101100 ;
b1 =
1K
b1000 S
b1 T
b101100 U
b11100 c
b100110001001011001100101 j

#405100
b110 <
b1111010 A
b110 W
b1111010 X

#410000
0!
0K

#415000
1!
b1100 8
b11011010 ;
b101 =
1K
b1100 S
b101 T
b11011010 U
b11101 c
b100110001001011001100100 j

#415100
b1000010 <
b10111111 A
b1000010 W
b10111111 X

#420000
0!
0K

#425000
1!
b1 8
b1000 ;
b1001 =
1K
b1 S
b1001 T
b1000 U
b11110 c
b100110001001011001100011 j

#425100
b1111010 <
b11101110 A
b1111010 W
b11101110 X

#430000
0!
0K

#435000
1!
b101 8
b101000 ;
b1101 =
1K
b101 S
b1101 T
b101000 U
b11111 c
b100110001001011001100010 j

#435100
b10111111 <
b11001010 A
b10111111 W
b11001010 X

#440000
0!
0K

#445000
1!
b1001 8
b1110100 ;
b10 =
1K
b1001 S
b10 T
b1110100 U
b100000 c
b100110001001011001100001 j

#445100
b11101110 <
b1011100 A
b11101110 W
b1011100 X

#450000
0!
0K

#455000
1!
b1101 8
b1001010 ;
b110 =
1K
b1101 S
b110 T
b1001010 U
b100001 c
b100110001001011001100000 j

#455100
b11001010 <
b10101011 A
b11001010 W
b10101011 X

#460000
0!
0K

#465000
1!
b10 8
b1100010 ;
b1010 =
1K
b10 S
b1010 T
b1100010 U
b100010 c
b100110001001011001011111 j

#465100
b1011100 <
b1001101 A
b1011100 W
b1001101 X

#470000
0!
0K

#475000
1!
b110 8
b11100011 ;
b1110 =
1K
b110 S
b1110 T
b11100011 U
b100011 c
b100110001001011001011110 j

#475100
b10101011 <
b1101011 A
b10101011 W
b1101011 X

#480000
0!
0K

#485000
1!
b1010 8
b1111111 ;
b11 =
1K
b1010 S
b11 T
b1111111 U
b100100 c
b100110001001011001011101 j

#485100
b1001101 <
b1011000 A
b1001101 W
b1011000 X

#490000
0!
0K

#495000
1!
b1110 8
b1101010 ;
b111 =
1K
b1110 S
b111 T
b1101010 U
b100101 c
b100110001001011001011100 j

#495100
b1101011 <
b11110100 A
b1101011 W
b11110100 X

#500000
0!
0K

#505000
1!
b11 8
b10111111 ;
b1011 =
1K
b11 S
b1011 T
b10111111 U
b100110 c
b100110001001011001011011 j

#505100
b1011000 <
b110000 A
b1011000 W
b110000 X

#510000
0!
0K

#515000
1!
b111 8
b100 ;
b1111 =
1K
b111 S
b1111 T
b100 U
b100111 c
b100110001001011001011010 j

#515100
b11110100 <
b10011001 A
b11110100 W
b10011001 X

#520000
0!
0K

#525000
1!
b1011 8
b11101110 ;
b100 =
0>
1K
0P
b1011 S
b100 T
b11101110 U
b101000 c
b100110001001011001011001 j

#525100
b110000 <
b10110 A
b110000 W
b10110 X

#530000
0!
0K

#535000
1!
b1111 8
b1000111 ;
1K
b1111 S
b1000111 U
b101001 c
b100110001001011001011000 j

#535100
b10011001 <
b10011001 W

#540000
0!
0K

#545000
1!
b101 8
19
0:
bx ;
b1 =
1>
1K
1O
1P
0Q
b101 S
b1 T
bx U
b101010 c
b100110001001011001010111 j

#545100
b10110 <
b10110 W

#550000
0!
0K

#555000
1!
b1101 8
b1001 =
1K
b1101 S
b1001 T
b101011 c
b100110001001011001010110 j

#555100
b101000 <
b1000 A
b101000 W
b1000 X

#560000
0!
0K

#565000
1!
b1010 8
b10 =
1K
b1010 S
b10 T
b101100 c
b100110001001011001010101 j

#565100
b1001010 <
b1110100 A
b1001010 W
b1110100 X

#570000
0!
0K

#575000
1!
b1110 8
b110 =
1K
b1110 S
b110 T
b101101 c
b100110001001011001010100 j

#575100
b1111111 <
b1100010 A
b1111111 W
b1100010 X

#580000
0!
0K

#585000
1!
b1111 8
b11 =
1K
b1111 S
b11 T
b101110 c
b100110001001011001010011 j

#585100
b1101010 <
b11100011 A
b1101010 W
b11100011 X

#590000
0!
0K

#595000
1!
b111 8
b1011 =
1K
b111 S
b1011 T
b101111 c
b100110001001011001010010 j

#595100
b1000111 <
b10111111 A
b1000111 W
b10111111 X

#600000
0!
0K

#605000
1!
b100 8
b0 =
1K
b100 S
b0 T
b110000 c
b100110001001011001010001 j

#605100
b100 <
b11101110 A
b100 W
b11101110 X

#610000
0!
0K

#615000
1!
b1100 8
b1000 =
1K
b1100 S
b1000 T
b110001 c
b100110001001011001010000 j

#615100
b1101111 <
b1001 A
b1101111 W
b1001 X

#620000
0!
0K

#625000
1!
bx 8
09
bx =
0>
1K
0O
0P
bx S
bx T
b110010 c
b100110001001011001001111 j

#625100
b11011010 <
b101100 A
b11011010 W
b101100 X

#630000
0!
0K

#635000
1!
1K
b110011 c
b100110001001011001001110 j

#640000
0!
0K

#645000
1!
1K
b110100 c
b100110001001011001001101 j

#650000
0!
0K

#655000
1!
1K
b110101 c
b100110001001011001001100 j

#660000
0!
0K

#665000
1!
1K
b110110 c
b100110001001011001001011 j

#670000
0!
0K

#675000
1!
1K
b110111 c
b100110001001011001001010 j

#680000
0!
0K

#685000
1!
1K
b111000 c
b100110001001011001001001 j

#690000
0!
0K

#695000
1!
1K
b111001 c
b100110001001011001001000 j

#700000
0!
0K

#705000
1!
1K
b111010 c
b100110001001011001000111 j

#710000
0!
0K

#715000
1!
1K
b111011 c
b100110001001011001000110 j

#720000
0!
0K

#725000
1!
1K
b111100 c
b100110001001011001000101 j

#730000
0!
0K

#735000
1!
1K
b111101 c
b100110001001011001000100 j

#740000
0!
0K

#745000
1!
1K
b111110 c
b100110001001011001000011 j

#750000
0!
0K

#755000
1!
1K
b111111 c
b100110001001011001000010 j

#760000
0!
0K

#765000
1!
1K
b1000000 c
b100110001001011001000001 j

#770000
0!
0K

#775000
1!
1K
b1000001 c
b100110001001011001000000 j

#780000
0!
0K

#785000
1!
1K
b1000010 c
b100110001001011000111111 j

#790000
0!
0K

#795000
1!
1K
b1000011 c
b100110001001011000111110 j

#800000
0!
0K

#805000
1!
1K
b1000100 c
b100110001001011000111101 j

#810000
0!
0K

#815000
1!
1K
b1000101 c
b100110001001011000111100 j

#820000
0!
0K

#825000
1!
1K
b1000110 c
b100110001001011000111011 j

#830000
0!
0K

#835000
1!
b1 8
19
1:
b11000011 ;
b0 =
1>
1?
b11101010 @
1K
1O
1P
1Q
1R
b1 S
b0 T
b11000011 U
b11101010 V
b1000111 c
b100110001001011000111010 j

#840000
0!
0K

#845000
1!
b11 8
b11100 ;
b10 =
b10000010 @
1K
b11 S
b10 T
b11100 U
b10000010 V
b1001000 c
b100110001001011000111001 j

#845100
b1000 <
b1001 A
b1000 W
b1001 X

#850000
0!
0K

#855000
1!
b101 8
b10010100 ;
b100 =
b11000100 @
1K
b101 S
b100 T
b10010100 U
b11000100 V
b1001001 c
b100110001001011000111000 j

#855100
b10111111 <
b1100010 A
b10111111 W
b1100010 X

#860000
0!
0K

#865000
1!
b111 8
b11101001 ;
b110 =
b10011 @
1K
b111 S
b110 T
b11101001 U
b10011 V
b1001010 c
b100110001001011000110111 j

#865100
b101000 <
b1101111 A
b101000 W
b1101111 X

#870000
0!
0K

#875000
1!
b1001 8
b10100001 ;
b1000 =
b1001001 @
1K
b1001 S
b1000 T
b10100001 U
b1001001 V
b1001011 c
b100110001001011000110110 j

#875100
b100 <
b11100011 A
b100 W
b11100011 X

#880000
0!
0K

#885000
1!
b1011 8
b111011 ;
b1010 =
b11000110 @
1K
b1011 S
b1010 T
b111011 U
b11000110 V
b1001100 c
b100110001001011000110101 j

#885100
b1110100 <
b101100 A
b1110100 W
b101100 X

#890000
0!
0K

#895000
1!
b1101 8
b101 ;
b1100 =
b10010010 @
1K
b1101 S
b1100 T
b101 U
b10010010 V
b1001101 c
b100110001001011000110100 j

#895100
b11101110 <
b1111111 A
b11101110 W
b1111111 X

#900000
0!
0K

#905000
1!
b1111 8
b110001 ;
b1110 =
b11100011 @
1K
b1111 S
b1110 T
b110001 U
b11100011 V
b1001110 c
b100110001001011000110011 j

#905100
b1001010 <
b11011010 A
b1001010 W
b11011010 X

#910000
0!
0K

#915000
1!
bx 8
09
0:
bx ;
bx =
0>
0?
bx @
1K
0O
0P
0Q
0R
bx S
bx T
bx U
bx V
b1001111 c
b100110001001011000110010 j

#915100
b1000111 <
b1101010 A
b1000111 W
b1101010 X

#920000
0!
0K

#925000
1!
b0 8
b10111010 ;
b0 =
1K
b0 S
b0 T
b10111010 U
b1010000 c
b100110001001011000110001 j

#930000
0!
0K

#935000
1!
1K
b1010001 c
b100110001001011000110000 j

#940000
0!
0K

#945000
1!
1>
1K
1P
b1010010 c
b100110001001011000101111 j

#950000
0!
0K

#955000
1!
19
1:
b1 =
1K
1O
1Q
b1 T
b1010011 c
b100110001001011000101110 j

#955100
b111010 ;
b11101010 A
b111010 U
b11101010 X

#960000
0!
0K

#965000
1!
b1 8
b11111110 ;
b10 =
1K
b1 S
b10 T
b11111110 U
b1010100 c
b100110001001011000101101 j

#965100
b11010111 ;
b11101010 <
b11000011 A
b11010111 U
b11101010 W
b11000011 X

#970000
0!
0K

#975000
1!
b10 8
b111010 ;
b11 =
1K
b10 S
b11 T
b111010 U
b1010101 c
b100110001001011000101100 j

#975100
b1111011 ;
b11000011 <
b10000010 A
b1111011 U
b11000011 W
b10000010 X

#980000
0!
0K

#985000
1!
b11 8
b101010 ;
b100 =
1K
b11 S
b100 T
b101010 U
b1010110 c
b100110001001011000101011 j

#985100
b10110100 ;
b10000010 <
b11100 A
b10110100 U
b10000010 W
b11100 X

#990000
0!
0K

#995000
1!
b100 8
b11010101 ;
b101 =
1K
b100 S
b101 T
b11010101 U
b1010111 c
b100110001001011000101010 j

#995100
b1101 ;
b11100 <
b11000100 A
b1101 U
b11100 W
b11000100 X

#1000000
0!
0K

#1005000
1!
b101 8
b101010 ;
b110 =
1K
b101 S
b110 T
b101010 U
b1011000 c
b100110001001011000101001 j

#1005100
b1111010 ;
b11000100 <
b10010100 A
b1111010 U
b11000100 W
b10010100 X

#1010000
0!
0K

#1015000
1!
b110 8
b10110001 ;
b111 =
1K
b110 S
b111 T
b10110001 U
b1011001 c
b100110001001011000101000 j

#1015100
b110110 ;
b10010100 <
b10011 A
b110110 U
b10010100 W
b10011 X

#1020000
0!
0K

#1025000
1!
b111 8
b10011010 ;
b1000 =
1K
b111 S
b1000 T
b10011010 U
b1011010 c
b100110001001011000100111 j

#1025100
b1100000 ;
b10011 <
b11101001 A
b1100000 U
b10011 W
b11101001 X

#1030000
0!
0K

#1035000
1!
b1000 8
b1000 ;
b1001 =
1K
b1000 S
b1001 T
b1000 U
b1011011 c
b100110001001011000100110 j

#1035100
b10101000 ;
b11101001 <
b1001001 A
b10101000 U
b11101001 W
b1001001 X

#1040000
0!
0K

#1045000
1!
b1001 8
b1110110 ;
b1010 =
1K
b1001 S
b1010 T
b1110110 U
b1011100 c
b100110001001011000100101 j

#1045100
b10011110 ;
b1001001 <
b10100001 A
b10011110 U
b1001001 W
b10100001 X

#1050000
0!
0K

#1055000
1!
b1010 8
b10101101 ;
b1011 =
1K
b1010 S
b1011 T
b10101101 U
b1011101 c
b100110001001011000100100 j

#1055100
b11001010 ;
b10100001 <
b11000110 A
b11001010 U
b10100001 W
b11000110 X

#1060000
0!
0K

#1065000
1!
b1011 8
b1110 ;
b1100 =
1K
b1011 S
b1100 T
b1110 U
b1011110 c
b100110001001011000100011 j

#1065100
b11110011 ;
b11000110 <
b111011 A
b11110011 U
b11000110 W
b111011 X

#1070000
0!
0K

#1075000
1!
b1100 8
b10001101 ;
b1101 =
1K
b1100 S
b1101 T
b10001101 U
b1011111 c
b100110001001011000100010 j

#1075100
b100100 ;
b111011 <
b10010010 A
b100100 U
b111011 W
b10010010 X

#1080000
0!
0K

#1085000
1!
b1101 8
b11110001 ;
b1110 =
1K
b1101 S
b1110 T
b11110001 U
b1100000 c
b100110001001011000100001 j

#1085100
b1100110 ;
b10010010 <
b101 A
b1100110 U
b10010010 W
b101 X

#1090000
0!
0K

#1095000
1!
b1110 8
b1001 ;
b1111 =
1K
b1110 S
b1111 T
b1001 U
b1100001 c
b100110001001011000100000 j

#1095100
b11101111 ;
b101 <
b11100011 A
b11101111 U
b101 W
b11100011 X

#1100000
0!
0K

#1105000
1!
1&
1*
1,
1-
14
16
b1111 8
b1000101 ;
b0 =
0>
1K
0P
b1111 S
b0 T
b1000101 U
b1100010 c
b100110001001011000011111 j

#1105100
b10010111 ;
b11100011 <
b110001 A
b10010111 U
b11100011 W
b110001 X

#1110000
0!
b1 C
0K

#1115000
1!
0$
0&
0'
0*
1+
0,
0-
1.
10
11
12
03
04
15
06
bx 8
09
0:
bx ;
bx =
b1 B
1K
0O
0Q
bx S
bx T
bx U
1Y
1[
b1100011 c
1d
b1 h
b1100001 i

#1115010
1J
1Z

#1115100
b110001 <
b110001 W

#1120000
0!
0K

#1125000
1!
0.
1/
00
01
02
1K
0Y
b1100100 c
0d
0e
b1 g

#1125010
0J
0Z

#1125100
0I

#1130000
0!
0K

#1135000
1!
0/
1K
b1100101 c

#1140000
0!
0K

#1145000
1!
1K
b1100110 c

#1150000
0!
0K

#1155000
1!
1K
b1100111 c

#1160000
0!
0K

#1165000
1!
1K
b1101000 c

